wave.vcd
$version Generated by VerilatedVcd $end
$date Tue Apr  2 20:16:44 2024 $end
$timescale 1s $end

 $scope module TOP $end
  $var wire  1 & clock $end
  $var wire  8 ( io_mul1 [7:0] $end
  $var wire  8 ) io_mul2 [7:0] $end
  $var wire  1 + io_out $end
  $var wire 16 * io_res [15:0] $end
  $var wire  1 ' reset $end
  $scope module test $end
   $var wire  1 & clock $end
   $var wire  8 ( io_mul1 [7:0] $end
   $var wire  8 ) io_mul2 [7:0] $end
   $var wire  1 + io_out $end
   $var wire 16 * io_res [15:0] $end
   $var wire 16 $ numReg [15:0] $end
   $var wire  1 ' reset $end
   $var wire  3 # stateReg [2:0] $end
   $scope module unnamedblk1 $end
    $var wire  8 % temp [7:0] $end
   $upscope $end
  $upscope $end
 $upscope $end
$enddefinitions $end


#0
b000 #
b0000000000000000 $
b00000000 %
0&
1'
b00000000 (
b00000000 )
b0000000000000000 *
0+
#1
1&
#2
0&
#3
1&
b00000111 (
b00001000 )
#4
0&
#5
b001 #
1&
0'
#6
0&
#7
b010 #
b1111111111110010 $
b00000100 %
1&
#8
0&
#9
b011 #
b1111111111100100 $
b00000001 %
1&
#10
0&
#11
b100 #
b00000000 %
1&
b1111111111100100 *
#12
0&
#13
b000 #
1&
b0000000000000000 *
#14
0&
#15
b001 #
1&
#16
0&
#17
b010 #
b1111111110111010 $
b00000100 %
1&
#18
0&
#19
b011 #
b1111111100000100 $
b00000001 %
1&
#20
0&
#21
b100 #
b00000000 %
1&
b1111111100000100 *
#22
0&
#23
b000 #
1&
b0000000000000000 *
#24
0&
#25
b001 #
1&
#26
0&
#27
b010 #
b1111110111111010 $
b00000100 %
1&
#28
0&
#29
b011 #
b1111100000000100 $
b00000001 %
1&
#30
0&
#31
b100 #
b00000000 %
1&
b1111100000000100 *
#32
0&
#33
b000 #
1&
b0000000000000000 *
#34
0&
#35
b001 #
1&
#36
0&
#37
b010 #
b1110111111111010 $
b00000100 %
1&
#38
0&
#39
b011 #
b1100000000000100 $
b00000001 %
1&
#40
0&
#41
b100 #
b00000000 %
1&
b1100000000000100 *
#42
0&
#43
b000 #
1&
b0000000000000000 *
#44
0&
#45
b001 #
1&
#46
0&
#47
b010 #
b0111111111111010 $
b00000100 %
1&
#48
0&
#49
b011 #
b0000000000000100 $
b00000001 %
1&
#50
0&
#51
b100 #
b00000000 %
1&
b0000000000000100 *
#52
0&
#53
b000 #
1&
b0000000000000000 *
#54
0&
#55
b001 #
1&
#56
0&
#57
b010 #
b1111111111111010 $
b00000100 %
1&
#58
0&
#59
b011 #
b0000000000000100 $
b00000001 %
1&
#60
0&
#61
b100 #
b00000000 %
1&
b0000000000000100 *
#62
0&
#63
b000 #
1&
b0000000000000000 *
#64
0&
#65
b001 #
1&
#66
0&
#67
b010 #
b1111111111111010 $
b00000100 %
1&
#68
0&
#69
b011 #
b0000000000000100 $
b00000001 %
1&
#70
0&
#71
b100 #
b00000000 %
1&
b0000000000000100 *
#72
0&
#73
b000 #
1&
b0000000000000000 *
#74
0&
#75
b001 #
1&
#76
0&
#77
b010 #
b1111111111111010 $
b00000100 %
1&
#78
0&
#79
b011 #
b0000000000000100 $
b00000001 %
1&
#80
0&
#81
b100 #
b00000000 %
1&
b0000000000000100 *
#82
0&
#83
b000 #
1&
b0000000000000000 *
#84
0&
#85
b001 #
1&
#86
0&
#87
b010 #
b1111111111111010 $
b00000100 %
1&
#88
0&
#89
b011 #
b0000000000000100 $
b00000001 %
1&
#90
0&
#91
b100 #
b00000000 %
1&
b0000000000000100 *
#92
0&
#93
b000 #
1&
b0000000000000000 *
#94
0&
#95
b001 #
1&
#96
0&
#97
b010 #
b1111111111111010 $
b00000100 %
1&
#98
0&
#99
b011 #
b0000000000000100 $
b00000001 %
1&
